{"success":true,"resource":"endpoint","operation":"list","data":[{"id":482367331,"name":"寄样筛选选项","method":"get","path":"/samples/filter-options","status":"released","folderId":90066299},{"id":482367332,"name":"未归因订单分页","method":"get","path":"/orders/order-attribution-unattributed","status":"released","folderId":90066300},{"id":482367334,"name":"导出订单CSV","method":"get","path":"/orders/exports","status":"released","folderId":90066301},{"id":482367343,"name":"[联调] Redis 探针","method":"get","path":"/ops/redis-probe","status":"released","folderId":90066302},{"id":482367344,"name":"分页查询操作日志","method":"get","path":"/operation-logs","status":"released","folderId":90066303},{"id":482367345,"name":"查询合作方独家状态","method":"get","path":"/exclusive-merchants/{partnerId}","status":"released","folderId":90066304},{"id":482367347,"name":"抖店 OAuth 回调","method":"get","path":"/douyin/oauth/callback","status":"released","folderId":90066305},{"id":482367349,"name":"获取归因概览数据","method":"get","path":"/dashboard/summary","status":"released","folderId":90066306},{"id":482367351,"name":"当前用户置顶商品","method":"get","path":"/colonel/pinned-products","status":"released","folderId":90066307},{"id":482367352,"name":"合作方列表","method":"get","path":"/colonel/partners","status":"released","folderId":90066308}],"context":{"projectId":"***REDACTED_APIFOX_PROJECT_ID***"},"meta":{"timestamp":"2026-07-09T12:06:55.123Z","total":252,"returned":10,"page":1,"pageSize":10,"totalPages":26,"prevPage":null,"nextPage":2},"agentHints":{"summary":"已列出项目 ***REDACTED_APIFOX_PROJECT_ID*** 中第 1/26 页的 10 个接口（每页 10，总数 252）","missingContext":["如果未设置 access token，需先执行 `apifox login`"],"nextSteps":[{"condition":"获取创建/更新前的字段定义","command":"apifox cli-schema get endpoint-create","requiredParams":[],"hint":null},{"condition":"继续获取下一页接口","command":"apifox endpoint list --project ***REDACTED_APIFOX_PROJECT_ID*** --page 2 --page-size 10 --branch <branchName>","requiredParams":["branchName"],"hint":"沿用本次操作所在分支时，将 <branchName> 替换为同一个分支名。"},{"condition":"查看接口详情","command":"apifox endpoint get <ENDPOINT_ID> --project ***REDACTED_APIFOX_PROJECT_ID*** --branch <branchName>","requiredParams":["ENDPOINT_ID","branchName"],"hint":"从上方返回的数据中选择 沿用本次操作所在分支时，将 <branchName> 替换为同一个分支名。"},{"condition":"创建新接口","command":"apifox endpoint create --project ***REDACTED_APIFOX_PROJECT_ID*** --file <path> --branch <branchName>","requiredParams":["path","branchName"],"hint":"沿用本次操作所在分支时，将 <branchName> 替换为同一个分支名。"}]}}
